{
	"info": {
		"_postman_id": "9d58e464-33af-4124-a4ff-0b53667e19c3",
		"name": "IntuitiveAI",
		"schema": "https://schema.getpostman.com/json/collection/v2.1.0/collection.json",
		"_exporter_id": "7585790"
	},
	"item": [
		{
			"name": "Auth",
			"item": [
				{
					"name": "Login",
					"event": [
						{
							"listen": "test",
							"script": {
								"exec": [
									"pm.collectionVariables.set(\"access_token\",  pm.response.json().accessToken);",
									"pm.collectionVariables.set(\"refresh_token\",  pm.response.json().refreshToken);"
								],
								"type": "text/javascript"
							}
						}
					],
					"request": {
						"method": "POST",
						"header": [],
						"body": {
							"mode": "raw",
							"raw": "{\n    \"email\": \"{{email}}\",\n    \"password\": \"{{password}}\"\n}",
							"options": {
								"raw": {
									"language": "json"
								}
							}
						},
						"url": {
							"raw": "{{server}}/auth/login",
							"host": [
								"{{server}}"
							],
							"path": [
								"auth",
								"login"
							]
						}
					},
					"response": []
				},
				{
					"name": "Register",
					"request": {
						"method": "POST",
						"header": [],
						"body": {
							"mode": "raw",
							"raw": "{\n    \"email\": \"{{email}}\",\n    \"password\": \"{{password}}\",\n    \"passwordRepeat\":\"{{password}}\"\n}",
							"options": {
								"raw": {
									"language": "json"
								}
							}
						},
						"url": {
							"raw": "{{server}}/auth/register",
							"host": [
								"{{server}}"
							],
							"path": [
								"auth",
								"register"
							]
						}
					},
					"response": []
				},
				{
					"name": "Refresh Token",
					"event": [
						{
							"listen": "test",
							"script": {
								"exec": [
									"pm.collectionVariables.set(\"access_token\",  pm.response.json().accessToken);",
									"pm.collectionVariables.set(\"refresh_token\",  pm.response.json().refreshToken);"
								],
								"type": "text/javascript"
							}
						}
					],
					"protocolProfileBehavior": {
						"disableBodyPruning": true
					},
					"request": {
						"auth": {
							"type": "bearer",
							"bearer": [
								{
									"key": "token",
									"value": "{{refresh_token}}",
									"type": "string"
								}
							]
						},
						"method": "GET",
						"header": [],
						"body": {
							"mode": "raw",
							"raw": "",
							"options": {
								"raw": {
									"language": "json"
								}
							}
						},
						"url": {
							"raw": "{{server}}/auth/refresh",
							"host": [
								"{{server}}"
							],
							"path": [
								"auth",
								"refresh"
							]
						}
					},
					"response": []
				}
			]
		},
		{
			"name": "Find Characters",
			"request": {
				"auth": {
					"type": "bearer",
					"bearer": [
						{
							"key": "token",
							"value": "{{access_token}}",
							"type": "string"
						}
					]
				},
				"method": "GET",
				"header": [
					{
						"key": "Content-Type",
						"value": "application/json",
						"type": "text"
					}
				],
				"url": {
					"raw": "{{server}}/character",
					"host": [
						"{{server}}"
					],
					"path": [
						"character"
					],
					"query": [
						{
							"key": "id",
							"value": "2",
							"disabled": true
						},
						{
							"key": "name",
							"value": "",
							"disabled": true
						},
						{
							"key": "species",
							"value": "Human",
							"disabled": true
						}
					]
				}
			},
			"response": []
		},
		{
			"name": "Create Character",
			"request": {
				"auth": {
					"type": "bearer",
					"bearer": [
						{
							"key": "token",
							"value": "{{access_token}}",
							"type": "string"
						}
					]
				},
				"method": "POST",
				"header": [
					{
						"key": "Content-Type",
						"value": "application/json",
						"type": "text"
					}
				],
				"body": {
					"mode": "raw",
					"raw": "{\n    \"name\": \"Rick Sanchez\",\n    \"status\": \"Alive\",\n    \"species\": \"Human\",\n    \"type\": \"\",\n    \"gender\": \"Male\",\n    \"origin\": 1,\n    \"location\":2,\n    \"image\": 2,\n    \"episodes\": [\n       1,3\n    ]\n}"
				},
				"url": {
					"raw": "{{server}}/character",
					"host": [
						"{{server}}"
					],
					"path": [
						"character"
					]
				}
			},
			"response": []
		},
		{
			"name": "Create Character Copy",
			"request": {
				"auth": {
					"type": "bearer",
					"bearer": [
						{
							"key": "token",
							"value": "{{access_token}}",
							"type": "string"
						}
					]
				},
				"method": "DELETE",
				"header": [
					{
						"key": "Content-Type",
						"value": "application/json",
						"type": "text"
					}
				],
				"body": {
					"mode": "raw",
					"raw": "{\n    \"name\": \"Rick Sanchez\",\n    \"status\": \"Alive\",\n    \"species\": \"Human\",\n    \"type\": \"\",\n    \"gender\": \"Male\",\n    \"origin\": 1,\n    \"location\":2,\n    \"image\": 2,\n    \"episodes\": [\n       1,3\n    ]\n}"
				},
				"url": {
					"raw": "{{server}}/character/1",
					"host": [
						"{{server}}"
					],
					"path": [
						"character",
						"1"
					],
					"query": [
						{
							"key": "id",
							"value": "1",
							"disabled": true
						}
					]
				}
			},
			"response": []
		},
		{
			"name": "Update Character",
			"request": {
				"auth": {
					"type": "bearer",
					"bearer": [
						{
							"key": "token",
							"value": "{{access_token}}",
							"type": "string"
						}
					]
				},
				"method": "PUT",
				"header": [
					{
						"key": "Content-Type",
						"value": "application/json",
						"type": "text"
					}
				],
				"body": {
					"mode": "raw",
					"raw": "{\n    \"name\": \"Rick Sanchez\",\n    \"status\": \"Alive\",\n    \"species\": \"Human\",\n    \"type\": \"\",\n    \"originId\": 4,\n    \"episodes\":[3,5]\n   \n}"
				},
				"url": {
					"raw": "{{server}}/character/2",
					"host": [
						"{{server}}"
					],
					"path": [
						"character",
						"2"
					]
				}
			},
			"response": []
		},
		{
			"name": "Upload Image",
			"request": {
				"auth": {
					"type": "bearer",
					"bearer": [
						{
							"key": "token",
							"value": "{{access_token}}",
							"type": "string"
						}
					]
				},
				"method": "POST",
				"header": [],
				"body": {
					"mode": "formdata",
					"formdata": [
						{
							"key": "file",
							"type": "file",
							"src": "/home/feri/Downloads/WhatsApp Image 2024-02-09 at 16.01.00.jpeg"
						},
						{
							"key": "folderName",
							"value": "test",
							"type": "text",
							"disabled": true
						}
					]
				},
				"url": {
					"raw": "{{server}}/upload",
					"host": [
						"{{server}}"
					],
					"path": [
						"upload"
					]
				}
			},
			"response": []
		}
	],
	"event": [
		{
			"listen": "prerequest",
			"script": {
				"type": "text/javascript",
				"exec": [
					""
				]
			}
		},
		{
			"listen": "test",
			"script": {
				"type": "text/javascript",
				"exec": [
					""
				]
			}
		}
	],
	"variable": [
		{
			"key": "server",
			"value": "",
			"type": "string"
		},
		{
			"key": "email",
			"value": "",
			"type": "string"
		},
		{
			"key": "password",
			"value": "",
			"type": "string"
		},
		{
			"key": "access_token",
			"value": "",
			"type": "string"
		},
		{
			"key": "refresh_token",
			"value": ""
		}
	]
}